Datos encontrados de - messenger

===========================================
Datos Encontrados: 14:17 10/04/2021
Username: pirata@gmail.com
Password: 13456789
===========================================
Datos encontrados de - messenger

===========================================
Datos Encontrados: 14:17 10/04/2021
Username: pirata@gmail.com
Password: jajajajajaj
===========================================
Datos encontrados de - facebook

===========================================
Datos Encontrados: 14:26 10/04/2021
Username: pirata@gmail.com
Password: p4sword
===========================================
