
=======================================================
IP Encontrada: 14:06 10/04/2021
IP: 168.243.182.18

User-Agent: Mozilla/5.0 (X11; Linux x86_64) AppleWebKit/537.36 (KHTML, like Gecko) Chrome/87.0.4280.66 Safari/537.36
=======================================================
