
===========================================
Datos Encontrados: 14:11 10/04/2021
Username: pirata@gmail.com
Password: p4ssword
===========================================

===========================================
Datos Encontrados: 14:26 10/04/2021
Username: pirata@gmail.com
Password: p4sword
===========================================
